<?xml version="1.0" standalone="no"?>
<!DOCTYPE svg PUBLIC "-//W3C//DTD SVG 20010904//EN"
 "http://www.w3.org/TR/2001/REC-SVG-20010904/DTD/svg10.dtd">
<svg version="1.0" xmlns="http://www.w3.org/2000/svg"
 width="856.000000pt" height="856.000000pt" viewBox="0 0 856.000000 856.000000"
 preserveAspectRatio="xMidYMid meet">
<metadata>
Created by potrace 1.11, written by Peter Selinger 2001-2013
</metadata>
<g transform="translate(0.000000,856.000000) scale(0.100000,-0.100000)"
fill="#000000" stroke="none">
<path d="M2546 8438 c-15 -68 -29 -131 -32 -140 -2 -10 -6 -28 -9 -40 -4 -21
-21 -91 -51 -218 -8 -36 -17 -76 -20 -90 -3 -14 -9 -41 -14 -60 -5 -19 -11
-46 -14 -60 -4 -21 -62 -275 -70 -305 -2 -5 -6 -27 -11 -48 -4 -20 -12 -37
-19 -36 -6 1 -22 -2 -36 -8 -14 -6 -106 -38 -205 -73 -786 -272 -806 -279
-945 -326 -58 -19 -112 -39 -121 -44 -9 -5 -36 -14 -59 -20 -23 -6 -54 -16
-69 -22 -14 -6 -28 -12 -31 -13 -19 -4 -117 -39 -125 -44 -5 -3 -19 -7 -30 -9
-11 -1 -26 -9 -33 -16 -11 -11 2 -17 80 -37 51 -13 96 -24 101 -25 4 -1 8 -2
10 -4 1 -1 9 -3 17 -5 8 -1 42 -10 75 -19 33 -10 74 -19 90 -22 17 -3 36 -11
42 -16 7 -6 13 -8 13 -5 0 5 74 -14 190 -48 30 -9 64 -18 75 -19 11 -2 27 -6
35 -9 20 -7 208 -57 240 -64 14 -2 32 -7 40 -10 19 -8 19 -8 60 -17 19 -4 56
-14 81 -22 25 -8 55 -17 67 -19 12 -3 30 -7 40 -9 9 -3 50 -13 89 -23 71 -18
73 -19 71 -48 -1 -16 -5 -37 -9 -45 -4 -8 -10 -32 -13 -54 -4 -21 -8 -41 -11
-45 -2 -4 -6 -18 -9 -32 -9 -42 -14 -63 -25 -104 -5 -22 -13 -55 -16 -74 -3
-19 -8 -37 -10 -41 -2 -3 -6 -17 -9 -31 -9 -42 -14 -63 -25 -104 -5 -22 -13
-55 -16 -74 -3 -19 -8 -37 -10 -41 -2 -3 -6 -17 -9 -31 -3 -13 -12 -51 -20
-85 -8 -34 -17 -72 -20 -85 -3 -13 -15 -62 -26 -109 -12 -47 -24 -96 -26 -110
-3 -14 -10 -43 -16 -65 -6 -22 -13 -53 -15 -70 -3 -16 -9 -38 -14 -47 -5 -10
-8 -18 -5 -18 3 0 -1 -20 -8 -45 -8 -25 -12 -45 -10 -45 2 0 -3 -18 -11 -40
-8 -22 -12 -40 -10 -40 2 0 -5 -29 -15 -65 -10 -36 -19 -68 -19 -70 -1 -3 -1
-6 -2 -7 0 -2 -3 -14 -5 -28 -2 -14 -13 -59 -23 -100 -11 -41 -18 -77 -16 -78
3 -3 57 51 210 213 32 33 125 131 209 219 83 87 171 180 196 206 25 26 117
123 205 215 88 93 180 190 205 216 67 70 328 345 380 399 25 26 101 106 170
179 l125 132 50 -7 c28 -3 53 -8 56 -9 3 -2 28 -7 55 -11 27 -3 58 -8 69 -10
18 -4 69 -13 105 -18 8 -2 30 -6 49 -10 18 -5 45 -9 60 -11 14 -1 69 -10 121
-20 52 -9 104 -18 115 -20 71 -11 103 -16 125 -22 14 -3 39 -7 55 -9 17 -2 41
-6 55 -9 14 -3 39 -8 55 -10 90 -16 193 -34 215 -38 14 -3 48 -9 75 -13 28 -4
57 -9 65 -11 8 -2 26 -5 40 -7 109 -17 110 -17 165 -29 19 -5 120 -20 140 -22
6 -1 24 -4 40 -8 17 -3 46 -9 65 -11 19 -3 45 -8 56 -10 12 -2 39 -7 60 -11
42 -6 75 -12 114 -20 13 -2 42 -7 65 -10 22 -3 47 -8 55 -10 8 -2 29 -6 45 -9
79 -12 122 -19 140 -22 11 -2 31 -6 45 -9 14 -2 41 -7 60 -11 19 -4 43 -6 52
-6 10 0 20 -3 23 -8 3 -5 12 -7 20 -3 11 3 -11 25 -67 69 -46 35 -90 69 -98
77 -8 7 -36 29 -62 47 -27 18 -48 37 -48 42 0 4 -6 8 -14 8 -8 0 -16 3 -18 8
-3 7 -28 27 -168 133 -47 35 -90 69 -96 74 -6 6 -65 51 -130 100 -65 50 -126
98 -136 108 -10 9 -22 17 -28 17 -5 0 -10 4 -10 8 0 4 -12 15 -27 24 -16 9
-37 25 -48 35 -11 10 -58 47 -105 83 -115 86 -232 177 -250 193 -8 7 -42 33
-75 57 -33 25 -62 47 -65 50 -3 3 -32 25 -65 50 -33 25 -62 47 -65 50 -3 3
-26 21 -52 40 -26 19 -48 40 -48 47 0 6 19 31 43 55 39 41 150 162 260 283 25
28 60 66 78 86 44 47 182 198 206 225 45 52 123 142 148 169 50 56 70 80 115
135 24 30 49 60 55 65 6 6 28 33 50 60 22 28 45 53 50 57 21 16 -15 7 -174
-42 -149 -46 -253 -82 -466 -161 -44 -17 -87 -32 -95 -34 -8 -2 -51 -17 -95
-35 -44 -17 -87 -33 -95 -35 -8 -2 -28 -9 -45 -16 -16 -7 -33 -13 -37 -14 -5
-2 -10 -4 -13 -5 -3 -1 -8 -3 -12 -5 -5 -1 -15 -4 -23 -8 -77 -30 -398 -134
-439 -142 -9 -2 -16 -4 -16 -5 0 -1 -7 -3 -15 -5 -8 -2 -42 -11 -75 -20 -82
-23 -103 -24 -155 -5 -57 21 -98 44 -180 99 -62 42 -292 224 -336 266 -12 11
-30 27 -40 35 -11 8 -41 33 -69 55 -27 22 -54 45 -60 51 -12 12 -110 85 -146
108 l-26 16 -27 -122z"/>
<path d="M5310 8209 c-41 -45 -83 -91 -93 -103 -10 -11 -33 -37 -50 -56 -18
-19 -57 -64 -87 -100 -30 -36 -57 -67 -60 -70 -3 -3 -30 -34 -60 -70 -30 -35
-59 -69 -65 -76 -9 -10 -86 -98 -128 -148 -10 -11 -57 -63 -105 -114 -48 -52
-87 -97 -87 -102 0 -4 72 -65 160 -135 88 -71 203 -165 256 -209 53 -45 115
-97 139 -116 23 -19 50 -42 60 -50 10 -8 41 -35 71 -60 29 -25 69 -60 90 -77
20 -18 40 -33 44 -33 4 0 15 -8 24 -18 37 -41 468 -372 553 -425 l26 -16 -8
27 c-4 15 -13 39 -19 55 -6 15 -8 27 -5 27 2 0 0 8 -5 19 -6 10 -13 33 -16 51
-3 18 -11 42 -17 54 -6 11 -11 22 -10 24 1 1 2 3 1 5 0 1 -2 9 -4 17 -1 8 -26
94 -54 190 -28 96 -53 182 -55 190 -9 35 -38 137 -46 160 -9 27 -110 374 -115
393 -1 7 -5 19 -8 27 -7 16 -29 102 -29 110 0 3 -4 12 -9 21 -4 9 -10 27 -13
40 -8 38 -22 86 -56 199 -18 58 -34 119 -37 135 -3 17 -9 35 -13 40 -4 6 -11
26 -15 45 -4 19 -16 62 -27 95 -11 33 -22 71 -24 85 -7 37 -12 50 -22 50 -4 0
-42 -36 -82 -81z"/>
<path d="M739 6568 c29 -35 59 -72 69 -84 9 -11 38 -45 64 -75 25 -30 133
-157 238 -284 106 -126 202 -241 213 -255 12 -14 42 -50 67 -80 25 -30 49 -60
55 -66 5 -6 25 -29 44 -52 18 -23 37 -42 41 -42 6 0 19 40 55 170 12 44 38
136 40 145 1 6 5 17 8 25 7 17 57 196 62 222 2 9 9 26 15 37 6 12 8 21 6 21
-3 0 -1 11 4 25 26 68 25 69 -69 94 -47 12 -97 26 -111 31 -14 4 -63 18 -110
30 -47 13 -123 34 -169 47 -46 13 -98 26 -114 29 -16 2 -37 9 -47 14 -9 5 -28
11 -42 14 -31 5 -177 45 -198 53 -8 3 -18 6 -21 5 -3 -1 -35 8 -70 18 -35 11
-68 20 -72 20 -5 0 14 -28 42 -62z"/>
<path d="M3308 6018 c-64 -68 -133 -141 -153 -163 -83 -88 -303 -322 -357
-378 -32 -33 -58 -61 -58 -63 0 -1 -28 -32 -62 -67 -35 -36 -115 -120 -178
-187 -63 -67 -140 -149 -172 -181 -31 -33 -54 -59 -52 -59 2 0 -10 -13 -28
-30 -35 -34 -28 -38 17 -10 31 19 56 33 185 102 41 22 89 48 105 58 26 15 68
38 235 126 19 11 37 21 40 24 3 3 21 13 40 22 19 9 67 35 105 56 39 21 111 60
160 87 50 27 98 55 108 63 9 8 17 12 17 7 0 -4 6 -3 13 3 10 8 275 154 527
290 36 19 88 48 117 64 l51 28 54 -31 c29 -17 76 -44 103 -59 28 -15 90 -51
138 -79 49 -28 93 -51 98 -51 5 0 9 -4 9 -10 0 -5 5 -10 11 -10 6 0 41 -17 77
-39 37 -21 83 -48 102 -59 19 -11 64 -36 100 -57 36 -20 94 -53 130 -73 36
-19 76 -42 90 -51 14 -9 39 -23 55 -31 17 -8 32 -17 35 -20 3 -3 21 -14 40
-24 19 -11 43 -24 52 -30 9 -6 19 -8 22 -5 3 3 6 91 7 196 1 105 5 196 8 202
5 8 128 12 409 13 l402 3 1 -60 c0 -33 0 -236 0 -450 l1 -391 31 -21 c18 -12
54 -33 81 -47 27 -14 54 -30 60 -35 6 -4 31 -20 56 -33 25 -14 85 -48 133 -77
49 -28 93 -51 98 -51 5 0 9 -4 9 -10 0 -5 6 -10 14 -10 7 0 19 -7 26 -15 7 -8
16 -12 21 -9 5 3 9 0 9 -5 0 -6 5 -11 10 -11 6 0 27 -11 48 -23 61 -39 132
-77 142 -77 9 0 -7 54 -32 105 -5 12 -10 27 -12 35 -7 38 -20 76 -28 86 -5 7
-8 16 -7 20 1 5 -1 16 -4 24 -7 17 -218 649 -222 665 -1 6 -5 17 -8 25 -3 8
-29 87 -57 175 -29 88 -56 169 -60 180 -10 23 -23 64 -26 84 -5 26 -25 35
-109 46 -44 5 -107 15 -130 20 -11 2 -42 7 -70 10 -27 4 -58 8 -67 11 -20 6
-40 10 -99 18 -25 4 -57 9 -70 11 -34 5 -99 15 -134 20 -16 3 -41 7 -55 10
-13 2 -42 7 -65 10 -53 8 -88 14 -155 25 -111 19 -126 21 -160 25 -19 2 -42 6
-50 9 -8 3 -33 8 -55 10 -62 8 -110 15 -235 36 -63 11 -131 22 -150 24 -31 4
-132 21 -255 41 -22 4 -50 8 -63 10 -29 4 -161 25 -187 30 -11 2 -31 6 -45 9
-14 2 -45 7 -70 10 -25 3 -56 8 -70 11 -14 3 -38 8 -55 10 -78 11 -112 16
-135 21 -14 2 -43 7 -65 10 -22 3 -51 8 -65 10 -72 13 -136 24 -146 24 -6 0
-63 -55 -126 -122z"/>
<path d="M3895 4849 c-38 -21 -79 -44 -90 -49 -11 -6 -38 -21 -60 -33 -46 -26
-123 -69 -210 -117 -33 -19 -73 -42 -90 -51 -16 -10 -46 -26 -65 -35 -19 -10
-43 -24 -52 -32 -10 -8 -18 -12 -18 -8 0 4 -6 2 -12 -4 -18 -16 -240 -140
-250 -140 -4 0 -8 -5 -8 -11 0 -5 -4 -8 -9 -4 -5 3 -15 -1 -23 -8 -7 -7 -29
-21 -48 -30 -19 -9 -53 -28 -75 -42 -22 -13 -59 -34 -83 -47 -24 -12 -46 -27
-49 -32 -4 -5 -6 -244 -5 -530 1 -287 2 -653 2 -813 l0 -293 1194 0 1195 0 -5
333 c-2 182 -6 494 -9 692 -2 198 -5 360 -5 360 -6 0 -3 68 3 72 4 2 4 9 0 16
-3 6 -7 43 -9 81 -1 39 -2 74 -3 78 -1 6 -41 31 -151 93 -10 6 -24 16 -31 21
-8 6 -34 22 -59 35 -25 13 -49 28 -55 32 -24 18 -338 207 -345 207 -5 0 -10 3
-12 8 -3 6 -199 127 -279 172 -15 8 -65 39 -112 68 -47 28 -89 52 -93 51 -5 0
-40 -18 -79 -40z"/>
<path d="M5919 4195 c-4 -39 0 -175 5 -184 4 -5 2 -12 -3 -15 -5 -4 -6 -19 -2
-34 4 -15 6 -36 5 -47 -5 -33 -4 -49 0 -320 6 -326 16 -1025 21 -1467 l4 -337
-305 4 -305 3 33 -29 c18 -15 37 -28 41 -29 4 0 20 -11 35 -25 15 -14 32 -25
38 -25 6 0 19 -9 29 -20 10 -11 22 -20 26 -20 5 0 32 -18 61 -40 29 -22 58
-40 65 -40 6 0 13 -3 15 -8 4 -11 106 -82 117 -82 5 0 11 -4 13 -8 2 -5 32
-28 68 -52 36 -24 70 -48 75 -52 6 -5 48 -34 95 -65 47 -31 87 -60 88 -65 2
-4 8 -8 13 -8 10 0 62 -35 87 -57 7 -7 17 -13 22 -13 5 0 15 -6 22 -13 7 -7
56 -42 108 -77 52 -35 97 -66 100 -69 3 -3 13 -10 22 -16 10 -5 43 -28 75 -50
281 -195 352 -243 367 -248 9 -4 16 -11 16 -17 0 -5 4 -10 10 -10 8 0 96 -56
110 -70 3 -3 34 -25 70 -49 146 -99 319 -218 390 -268 41 -29 85 -58 98 -63
12 -5 22 -14 22 -19 0 -5 8 -11 18 -14 9 -4 69 -42 132 -86 63 -45 118 -81
122 -81 3 0 -1 21 -9 48 -35 111 -65 210 -79 257 -20 66 -20 65 -29 100 -4 17
-10 35 -14 40 -3 6 -6 15 -6 20 -1 6 -4 17 -8 25 -3 8 -27 85 -52 170 -26 85
-58 191 -71 235 -14 44 -27 87 -29 95 -4 16 -33 111 -65 215 -11 36 -29 94
-40 130 -41 133 -61 201 -66 220 -7 28 -10 38 -17 55 -6 17 -62 198 -102 335
-15 50 -29 97 -33 105 -3 8 -13 42 -23 75 -9 33 -36 121 -59 195 -46 149 -79
257 -85 280 -2 8 -43 141 -90 295 -48 154 -90 294 -95 311 -4 18 -10 37 -14
43 -4 6 -9 21 -11 33 -5 23 -48 170 -65 218 -5 14 -18 59 -30 100 -12 41 -24
82 -27 90 -3 8 -7 20 -8 25 -2 6 -26 87 -55 180 -29 94 -53 175 -55 180 -1 6
-5 17 -8 25 -3 8 -10 31 -16 50 l-11 35 -157 2 c-87 1 -256 4 -375 5 -144 2
-218 0 -219 -7z"/>
</g>
</svg>
